{
  "type": "service_account",
  "project_id": "arki-budget-estimate-tool",
  "private_key_id": "de8585d05595f9f9d124a704f2c19dbefd3a346c",
  "private_key": "-----BEGIN PRIVATE KEY-----\nMIIEvQIBADANBgkqhkiG9w0BAQEFAASCBKcwggSjAgEAAoIBAQCPlCCRDbVMKPHm\nxFmam5wYI0mcNOdZRvDHOeN/33hHGZfW1ablgWKDt63cSONWar0mWAMyy2Mko87O\nU1sytAUKKS5VzeQW5BkzTPhcrCktBaqvY7IkIJ9QKtnUEOZgY3GyVQ9MyXUw/Bv+\n068k4WFx+aWNywtj1ENboCgGBx7AnOQaf6uGXWf8D4Nxy3oGRWk4ohd7kVdsP1LN\n4dsEvzrR3/291f17PLjMIDJmVQO4Q5aA556kFWE1XH/kG+2s4TCJ7Vj6cICb5HWh\nDNLjDt78EN0TwO/xJF8/fdCTFSdhUf/fSGNMYuj8+2wCATh7pWtNyITnDSMiXTeV\n2b9MnwTLAgMBAAECggEARqOeqC8B4SAN77bvzMi9cgS+fQtsPTjRUntxKeMU5oo5\ncZm5HJZdFSfj8oqrysMGH5zSqgV12Dt9jnZlWptGFXswUEfVbcu4eExorxOGyJ9O\nnC7lILAqIYOLmzHbXlXexNnjhqhhL4IB9gxI0dDPJAeqw4m/p1Rx9VzlBB4xq5po\nNRvnTzG30Uua7ebLLNHC+T53zQRNeVBDCz0kMQYSQfPse+CHGBxTGM5p49MYNzAp\njAo/JftwZlXdnbK25HNcAwehJhh/GX9oNXNje6MiDL9yVtKHi12AJArBjbSnfwia\noqp5y7K8gcUKecn4oIC9qJhs2dxJbI/fIucygSemnQKBgQDHeM2ZFNg0F7G01+ai\nSAK7grbskBPmqvS+TpOxJ2mmCZWjEVNzzARB48F/qSs4j0zWGVCQd8mHazAu2LNT\nYeBPXIs8ybYhjcnfoY3wCLa6mKvBIpQrgqxecnuoipcS2dFPKs003LXkGQc0cKWi\nUr6+2oXDX6cF61GhZMoOsHbFzQKBgQC4RGeTWIW293AcJqct6iKWoVTtMZZ4Vh/6\nNhfLNyomQFLYmOYn8W7xu2Zn7iWKqBXljmuUpuMCbB9mNgOF7DPqYVCgMCi/9TB7\nTmgKXzpsPAjUpHm+Hc1elz4MQcBKbwIeucSfc2xPUvHsrtiGR+Lnr0+nfR+8Qg0X\n+ExtrjLc9wKBgQDCk+OylTPFtOtDZmvzF12a/gpkPrM7Cr6NOWc2oySas7TFCeyn\nA3ePspUZa7LejGK+YplFI6RxtaydtgNPriU6JSMpm/ZPStmGjThA0q803CKG1q1E\nuEZeJzzbDr4JxHI50J22GCpSI9v0WoIoEqFA2Tcsew0ZaBAL6J51r8tcbQKBgEyp\nmPYChE8lDu2HX1KI8K7+nBi64sFaA5/T1X5kixKy/ETFCCxiFChaMTbYK6JOYB3L\nbRLBg/zEAyRBIKIdLVQ7/JFIuAt09SC39C0shV/2ci4V59ijCYhrIBN1X40YNieW\nXimAmfU+qwwvikIDsnF1zIwAUK3ARTZNxW50ZRDtAoGAQpcbCORdC9v2D9WuI1Xo\nwoIEuW3PPCO2b8mmaFUkMATQvVK/BsozYdACAVbeJpr2Ahx3hDM5/d5yObfgVa79\nYgQzA7xBNhLpMBTTkLyfcIEdWBNZU2rL0beQBj5qqejpLKJmIQnOs0l888lPHveT\n1J2hTATJyi6jkueeSmWOyvs=\n-----END PRIVATE KEY-----\n",
  "client_email": "firebase-adminsdk-g3xj6@arki-budget-estimate-tool.iam.gserviceaccount.com",
  "client_id": "102556311337772448366",
  "auth_uri": "https://accounts.google.com/o/oauth2/auth",
  "token_uri": "https://oauth2.googleapis.com/token",
  "auth_provider_x509_cert_url": "https://www.googleapis.com/oauth2/v1/certs",
  "client_x509_cert_url": "https://www.googleapis.com/robot/v1/metadata/x509/firebase-adminsdk-g3xj6%40arki-budget-estimate-tool.iam.gserviceaccount.com"
}
